<?xml version="1.0" encoding="UTF-8" standalone="no"?>
<svg
   width="48mm"
   height="48mm"
   version="1.1"
   style="clip-rule:evenodd;fill-rule:evenodd;image-rendering:optimizeQuality;shape-rendering:geometricPrecision;text-rendering:geometricPrecision"
   viewBox="0 0 4799.9998 4799.9998"
   id="svg1"
   sodipodi:docname="clock-5.svg"
   inkscape:version="1.3.2 (091e20ef0f, 2023-11-25, custom)"
   xmlns:inkscape="http://www.inkscape.org/namespaces/inkscape"
   xmlns:sodipodi="http://sodipodi.sourceforge.net/DTD/sodipodi-0.dtd"
   xmlns="http://www.w3.org/2000/svg"
   xmlns:svg="http://www.w3.org/2000/svg">
  <sodipodi:namedview
     id="namedview1"
     pagecolor="#1a1a1a"
     bordercolor="#999999"
     borderopacity="1"
     inkscape:showpageshadow="0"
     inkscape:pageopacity="0"
     inkscape:pagecheckerboard="true"
     inkscape:deskcolor="#d1d1d1"
     inkscape:document-units="mm"
     inkscape:zoom="2.5355462"
     inkscape:cx="226.5784"
     inkscape:cy="153.81301"
     inkscape:window-width="2560"
     inkscape:window-height="1386"
     inkscape:window-x="0"
     inkscape:window-y="0"
     inkscape:window-maximized="1"
     inkscape:current-layer="_2744629463488" />
  <defs
     id="defs1">
    <style
       type="text/css"
       id="style1">  .fil0 {fill:#F0F0F0} .fil1 {fill:#011627;fill-rule:nonzero}  </style>
  </defs>
  <g
     id="Layer_x0020_1"
     inkscape:label="Layer 1"
     inkscape:groupmode="layer">
    <metadata
       id="CorelCorpID_0Corel-Layer" />
    <g
       id="_2744629463488">
      <path
         class="fil1"
         d="m 4431.4162,2508.2496 c 0,-560 -227,-1067 -594,-1435 -368,-367.00004 -875,-594 -1435,-594 -560,0 -1067,226.99996 -1435.00002,594 -367,368 -593.99996,875 -593.99996,1435 0,560 226.99996,1067 593.99996,1435 368.00002,367 875.00002,594 1435.00002,594 560,0 1067,-227 1435,-594 367,-368 594,-875 594,-1435 z m -470,-1559.00004 c 399,399.00004 646,950.00004 646,1559.00004 0,609 -247,1160 -646,1559 -399,399 -950,646 -1559,646 -609,0 -1160,-247 -1559.00002,-646 -398.99996,-399 -645.99996,-950 -645.99996,-1559 0,-609 247,-1160 645.99996,-1559.00004 C 1242.4162,550.2496 1793.4162,303.2496 2402.4162,303.2496 c 609,0 1160,247 1559,645.99996 z"
         id="path1"
         style="fill:#ffffff;fill-opacity:1"
         sodipodi:nodetypes="scscscscssssssssss" />
      <path
         style="fill:none;stroke:#ffffff;stroke-width:200;stroke-linecap:round;stroke-linejoin:round;stroke-dasharray:none;stroke-opacity:1"
         d="M 2396.8559,1474.3012 V 2524.3563 L 3485.9455,1036.3772"
         id="path2"
         sodipodi:nodetypes="ccc" />
      <path
         style="fill:none;stroke:#ffffff;stroke-width:299.99997923;stroke-linecap:round;stroke-linejoin:round;stroke-dasharray:none;stroke-opacity:1"
         d="m 888.60233,818.79403 c 39.37667,-22.76586 70.10677,-58.22087 108.6296,-82.29763 13.19107,-8.24442 28.54877,-12.62552 41.73987,-20.86991 14.748,-9.21755 27.5877,-21.19624 41.7398,-31.30489 10.2053,-7.28948 21.5118,-13.03546 31.3049,-20.86993 19.0884,-15.27069 33.0865,-36.90413 52.1748,-52.17483 9.7931,-7.83447 21.2719,-13.34515 31.3049,-20.86993 7.64,-5.72995 13.5057,-13.50565 20.2585,-20.25848"
         id="path3" />
      <path
         style="fill:none;stroke:#ffffff;stroke-width:299.99997923;stroke-linecap:round;stroke-linejoin:round;stroke-dasharray:none;stroke-opacity:1"
         d="m 3914.5044,818.79403 c -39.3766,-22.76586 -70.1067,-58.22087 -108.6296,-82.29763 -13.191,-8.24442 -28.5487,-12.62552 -41.7398,-20.86991 -14.748,-9.21755 -27.5877,-21.19624 -41.7398,-31.30489 -10.2053,-7.28948 -21.5118,-13.03546 -31.3049,-20.86993 -19.0884,-15.27069 -33.0865,-36.90413 -52.1748,-52.17483 -9.7931,-7.83447 -21.2719,-13.34515 -31.3049,-20.86993 -7.64,-5.72995 -13.5057,-13.50565 -20.2585,-20.25848"
         id="path4" />
      <path
         style="fill:none;stroke:#ffffff;stroke-width:299.99997923;stroke-linecap:round;stroke-linejoin:round;stroke-dasharray:none;stroke-opacity:1"
         d="m 2197.4399,245.83151 c 45.1595,5.42437 91.019,-4.49031 136.2824,-0.62685 15.4992,1.32287 30.4126,7.03627 45.9118,8.35923 17.3285,1.47902 34.788,-0.39582 52.1748,0.0128 12.5378,0.29468 25.0301,2.48487 37.5653,2.09623 24.4333,-0.75751 48.6141,-9.65946 73.0473,-10.41703 12.5353,-0.38864 25.0241,2.09317 37.5654,2.09622 9.55,0.002 18.9086,-2.69645 28.3629,-4.04471"
         id="path5" />
    </g>
  </g>
</svg>
